[
  "sex",
  "sexy",
  "gush",
  "slam",
  "rough",
  "hoes",
  "jizz",
  "jism",
  "jizzum",
  "ejaculate",
  "cumshot",
  "cum",
  "cunt",
  "tits",
  "titties",
  "tatas",
  "knockers",
  "boobies",
  "milkers",
  "jugs",
  "melons",
  "hooters",
  "nips",
  "clit",
  "clits",
  "clitoris",
  "smut",
  "smutty",
  "dirty",
  "gams",
  "yams",
  "cakes",
  "dick",
  "schlong",
  "penis",
  "pecker",
  "woody",
  "hardon",
  "rod",
  "rodger",
  "boner",
  "member",
  "ass",
  "cleavage",
  "bust",
  "cock",
  "dicklet",
  "dong",
  "butt",
  "buttcheaks",
  "fuck",
  "nasty",
  "sluts",
  "slutty",
  "spit",
  "fucker",
  "motherfucker",
  "cumslut",
  "slut",
  "suck",
  "blow",
  "anus",
  "hole",
  "slit",
  "needy",
  "hard",
  "rockhard",
  "stiffy",
  "asses",
  "bussy",
  "nips",
  "cock",
  "nuts",
  "naughty",
  "balls",
  "sack",
  "scrote",
  "scrotum",
  "ballsack",
  "nards",
  "taint",
  "grundle",
  "slappy",
  "sloppy",
  "slidey",
  "slippery",
  "sensual",
  "submissive",
  "dominant",
  "cuck",
  "piss",
  "shit",
  "poop",
  "scat",
  "precum",
  "lube",
  "spit",
  "slobber",
  "choke",
  "blowjob",
  "head",
  "rimjob",
  "rimming",
  "finger",
  "feet",
  "toes",
  "frottage",
  "submit",
  "deny",
  "tease",
  "pussy"
]